Analyses of German politiciansâ€™ tweets
…
Tweets per person

tweets_df %>% 
  group_by(party, screenName) %>% 
  summarise(n = n()) %>% 
  arrange(-n)

## # A tibble: 167 x 3
## # Groups:   party [9]
##    party      screenName     n
##    <chr>           <chr> <int>
##  1   SPD MechthildRawert  3243
##  2   CDU      PLengsfeld  3239
##  3   SPD       rischwasu  3237
##  4   CDU  MGrosseBroemer  3235
##  5   CSU        DoroBaer  3232
##  6   SPD     Elke_Ferner  3232
##  7   SPD   KerstinGriese  3232
##  8   SPD brigittezypries  3228
##  9   CDU       tj_tweets  3227
## 10   CDU   peteraltmaier  3225
## # ... with 157 more rows
…
## [1] 0

Nup.

Look at some peak days

lindner %>% 
 count(day_nr) %>% 
  mutate(my_date = ymd("2016-06-09") + day_nr) %>% 
  arrange(-n)

## # A tibble: 404 x 3
##    day_nr     n    my_date
##     <dbl> <int>     <date>
##  1    336    50 2017-05-11
##  2    157    46 2016-11-13
##  3    339    44 2017-05-14
##  4    163    40 2016-11-19
##  5    211    38 2017-01-06
##  6    220    37 2017-01-15
##  7    392    33 2017-07-06
##  8    297    31 2017-04-02
##  9    323    31 2017-04-28
## 10    338    31 2017-05-13
## # ... with 394 more rows
…
}

For comparison, execute this function non-programmatically, but interactively (for debugging reasons):

party <- "afd"

my_pattern <- paste0(party, "\\w+")

tweets_per_party_word_count_stemmed %>% 
  mutate(output = str_replace(string = .$token,
                         pattern = my_pattern,
                         replacement = "afd")) %>% 
  filter(str_detect(token, "afd"))

## # A tibble: 337 x 4
##     party           token     n     output
##     <chr>           <chr> <int>      <chr>
##  1    AfD             afd  3371        afd
##  2    SPD             afd  1259        afd
##  3    CDU             afd  1058        afd
##  4  Linke             afd   678        afd
##  5 Gruene             afd   614        afd
##  6    AfD        afd_bund   460        afd
##  7    AfD wahlen_afd_2016   198 wahlen_afd
##  8    AfD       afdberlin   172        afd
##  9    AfD      afdkompakt   123        afd
## 10    AfD     afd_kompakt   104        afd
## # ... with 327 more rows

Now see whether the function runs as expected:

#debug(stem_party)
dummy <- stem_term(df = tweets_per_party_word_count_stemmed,
                     col = token,
                     stem_output = "afd")

dummy %>% 
  as_tibble %>% 
  filter(str_detect(dummy, "afd"))

## # A tibble: 337 x 1
##         value
##         <chr>
##  1        afd
##  2        afd
##  3        afd
##  4        afd
##  5        afd
##  6        afd
##  7 wahlen_afd
##  8        afd
##  9        afd
## 10        afd
## # ... with 327 more rows
…
